{
  "name": "Epoppee",
  "fields": [],
  "relationships": [],
  "changelogDate": "20210319061658",
  "entityTableName": "epoppee",
  "dto": "no",
  "pagination": "no",
  "service": "no",
  "jpaMetamodelFiltering": false,
  "fluentMethods": true,
  "readOnly": false,
  "embedded": false,
  "clientRootFolder": "",
  "applications": "*"
}
