{
  "name": "Forms",
  "fields": [
    {
      "fieldName": "formName",
      "fieldType": "String"
    },
    {
      "fieldName": "date",
      "fieldType": "String"
    },
    {
      "fieldName": "nom",
      "fieldType": "String"
    },
    {
      "fieldName": "reference",
      "fieldType": "String"
    },
    {
      "fieldName": "description",
      "fieldType": "String"
    }
  ],
  "relationships": [],
  "changelogDate": "20210319061558",
  "entityTableName": "forms",
  "dto": "no",
  "pagination": "no",
  "service": "no",
  "jpaMetamodelFiltering": false,
  "fluentMethods": true,
  "readOnly": false,
  "embedded": false,
  "clientRootFolder": "",
  "applications": "*"
}
